%YAML 1.1
%TAG !u! tag:unity3d.com,2011:
--- !u!114 &11400000
MonoBehaviour:
  m_ObjectHideFlags: 0
  m_CorrespondingSourceObject: {fileID: 0}
  m_PrefabInstance: {fileID: 0}
  m_PrefabAsset: {fileID: 0}
  m_GameObject: {fileID: 0}
  m_Enabled: 1
  m_EditorHideFlags: 0
  m_Script: {fileID: 11500000, guid: 95e66c6366d904e98bc83428217d4fd7, type: 3}
  m_Name: Input&GetComponent
  m_EditorClassIdentifier: 
  _data:
    _json: '{"graph":{"variables":{"Kind":"Flow","collection":{"$content":[],"$version":"A"},"$version":"A"},"controlInputDefinitions":[],"controlOutputDefinitions":[],"valueInputDefinitions":[],"valueOutputDefinitions":[],"title":"Input&GetComponent","summary":null,"pan":{"x":1113.502,"y":373.6046},"zoom":0.7333333,"elements":[{"coroutine":false,"defaultValues":{},"position":{"x":-318.0,"y":-162.0},"guid":"fbea6f7b-f782-452c-b0b1-dd28ff9f983a","$version":"A","$type":"Unity.VisualScripting.Start","$id":"9"},{"chainable":false,"member":{"name":"Rotate","parameterTypes":["System.Single","System.Single","System.Single"],"targetType":"UnityEngine.Transform","targetTypeName":"UnityEngine.Transform","$version":"A"},"defaultValues":{"target":null,"%xAngle":{"$content":0.0,"$type":"System.Single"},"%yAngle":{"$content":0.0,"$type":"System.Single"},"%zAngle":{"$content":0.0,"$type":"System.Single"}},"position":{"x":1583.0,"y":140.0},"guid":"920dc4a0-9a91-40ec-a71d-44f39deef9c5","$version":"A","$type":"Unity.VisualScripting.InvokeMember","$id":"11"},{"chainable":false,"member":{"name":"Rotate","parameterTypes":["System.Single","System.Single","System.Single"],"targetType":"UnityEngine.Transform","targetTypeName":"UnityEngine.Transform","$version":"A"},"defaultValues":{"target":null,"%xAngle":{"$content":0.0,"$type":"System.Single"},"%yAngle":{"$content":0.0,"$type":"System.Single"},"%zAngle":{"$content":0.0,"$type":"System.Single"}},"position":{"x":1377.0,"y":6.0},"guid":"424d780a-4f0a-42a1-919f-f96c1c92d91b","$version":"A","$type":"Unity.VisualScripting.InvokeMember","$id":"14"},{"chainable":false,"member":{"name":"GetAxisRaw","parameterTypes":["System.String"],"targetType":"UnityEngine.Input","targetTypeName":"UnityEngine.Input","$version":"A"},"defaultValues":{"%axisName":{"$content":"Vertical","$type":"System.String"}},"position":{"x":-452.0,"y":361.0},"guid":"f1ce4a96-1c97-494b-b79e-a04aa11d309f","$version":"A","$type":"Unity.VisualScripting.InvokeMember","$id":"17"},{"specifyFallback":false,"kind":"Object","defaultValues":{"name":{"$content":"vRotationSpeed","$type":"System.String"},"object":null},"position":{"x":566.0,"y":632.0},"guid":"469f0167-0c9f-4df5-8a79-f296d31caa35","$version":"A","$type":"Unity.VisualScripting.GetVariable","$id":"20"},{"chainable":false,"member":{"name":"GetAxisRaw","parameterTypes":["System.String"],"targetType":"UnityEngine.Input","targetTypeName":"UnityEngine.Input","$version":"A"},"defaultValues":{"%axisName":{"$content":"Horizontal","$type":"System.String"}},"position":{"x":-449.0,"y":124.0},"guid":"7ac1fd22-d7cd-44d2-b7b3-fd61fc83525a","$version":"A","$type":"Unity.VisualScripting.InvokeMember","$id":"22"},{"chainable":false,"member":{"name":"visible","parameterTypes":null,"targetType":"UnityEngine.Cursor","targetTypeName":"UnityEngine.Cursor","$version":"A"},"defaultValues":{"input":{"$content":true,"$type":"System.Boolean"}},"position":{"x":-160.0,"y":-162.0},"guid":"7f53f5a2-ccfb-4767-a93b-febba8e82ce0","$version":"A","$type":"Unity.VisualScripting.SetMember","$id":"25"},{"chainable":false,"member":{"name":"lockState","parameterTypes":null,"targetType":"UnityEngine.Cursor","targetTypeName":"UnityEngine.Cursor","$version":"A"},"defaultValues":{"input":{"$content":"Locked","$type":"UnityEngine.CursorLockMode"}},"position":{"x":32.0,"y":-162.0},"guid":"448ac2cd-9d1f-45ef-abef-a4571ed4e930","$version":"A","$type":"Unity.VisualScripting.SetMember","$id":"28"},{"coroutine":false,"defaultValues":{},"position":{"x":-443.0,"y":-7.0},"guid":"3453d40b-980f-42a8-9869-c0c772f43182","$version":"A","$type":"Unity.VisualScripting.Update","$id":"31"},{"member":{"name":"forward","parameterTypes":null,"targetType":"UnityEngine.Vector3","targetTypeName":"UnityEngine.Vector3","$version":"A"},"defaultValues":{},"position":{"x":-435.0,"y":498.0},"guid":"de850cd0-715a-4f6a-ba35-87e01e6cb014","$version":"A","$type":"Unity.VisualScripting.GetMember","$id":"33"},{"defaultValues":{},"position":{"x":132.0,"y":324.0},"guid":"01ba4084-7656-42ee-ad8b-448e97c5e569","$version":"A","$type":"Unity.VisualScripting.GenericMultiply","$id":"36"},{"member":{"name":"right","parameterTypes":null,"targetType":"UnityEngine.Vector3","targetTypeName":"UnityEngine.Vector3","$version":"A"},"defaultValues":{},"position":{"x":-444.0,"y":252.0},"guid":"602b02b6-a127-4297-8fd4-f54cad36c409","$version":"A","$type":"Unity.VisualScripting.GetMember","$id":"38"},{"defaultValues":{},"position":{"x":-227.0,"y":176.0},"guid":"07628d53-09ab-496a-bcb6-01192e69c3a5","$version":"A","$type":"Unity.VisualScripting.GenericMultiply","$id":"41"},{"chainable":false,"member":{"name":"Translate","parameterTypes":["UnityEngine.Vector3"],"targetType":"UnityEngine.Transform","targetTypeName":"UnityEngine.Transform","$version":"A"},"defaultValues":{"target":null,"%translation":{"x":0.0,"y":0.0,"z":0.0,"$type":"UnityEngine.Vector3"}},"position":{"x":248.0,"y":-4.0},"guid":"8aa6dbfd-2794-42c3-8fb8-5245b3a06b02","$version":"A","$type":"Unity.VisualScripting.InvokeMember","$id":"43"},{"specifyFallback":false,"kind":"Object","defaultValues":{"name":{"$content":"Camera","$type":"System.String"},"object":null},"position":{"x":1224.0,"y":252.0},"guid":"164e6c4d-5b1b-4bd8-9f8f-52f6496f9b74","$version":"A","$type":"Unity.VisualScripting.GetVariable","$id":"46"},{"defaultValues":{},"position":{"x":-240.0,"y":350.0},"guid":"89f5b819-bbbc-4e85-afd2-6dec558254b6","$version":"A","$type":"Unity.VisualScripting.GenericMultiply","$id":"48"},{"defaultValues":{},"position":{"x":70.0,"y":523.0},"guid":"d7d7d470-5960-47d8-8ae1-a034ec85668b","$version":"A","$type":"Unity.VisualScripting.GenericMultiply","$id":"50"},{"member":{"name":"deltaTime","parameterTypes":null,"targetType":"UnityEngine.Time","targetTypeName":"UnityEngine.Time","$version":"A"},"defaultValues":{},"position":{"x":591.0,"y":492.0},"guid":"73eeb2d8-76aa-4f2e-bfab-5de10446c1b6","$version":"A","$type":"Unity.VisualScripting.GetMember","$id":"52"},{"chainable":false,"member":{"name":"GetAxis","parameterTypes":["System.String"],"targetType":"UnityEngine.Input","targetTypeName":"UnityEngine.Input","$version":"A"},"defaultValues":{"%axisName":{"$content":"Mouse
      X","$type":"System.String"}},"position":{"x":722.0,"y":111.0},"guid":"619330be-89d8-4d3d-919f-756f7198d55d","$version":"A","$type":"Unity.VisualScripting.InvokeMember","$id":"55"},{"specifyFallback":false,"kind":"Object","defaultValues":{"name":{"$content":"hRotationSpeed","$type":"System.String"},"object":null},"position":{"x":484.0,"y":350.0},"guid":"44c66db7-8eed-4e5e-83b7-58236e68ccb0","$version":"A","$type":"Unity.VisualScripting.GetVariable","$id":"58"},{"defaultValues":{},"position":{"x":1240.0,"y":467.0},"guid":"4bc054b6-749f-4f38-872a-45a26c46a13b","$version":"A","$type":"Unity.VisualScripting.GenericMultiply","$id":"60"},{"defaultValues":{},"position":{"x":727.0,"y":246.0},"guid":"75b7cd02-f9be-4953-858e-ae3b94b151f9","$version":"A","$type":"Unity.VisualScripting.GenericMultiply","$id":"62"},{"chainable":false,"member":{"name":"GetAxis","parameterTypes":["System.String"],"targetType":"UnityEngine.Input","targetTypeName":"UnityEngine.Input","$version":"A"},"defaultValues":{"%axisName":{"$content":"Mouse
      Y","$type":"System.String"}},"position":{"x":932.0,"y":606.0},"guid":"56a43ba5-af55-4718-9b58-519b45397b4b","$version":"A","$type":"Unity.VisualScripting.InvokeMember","$id":"64"},{"member":{"name":"deltaTime","parameterTypes":null,"targetType":"UnityEngine.Time","targetTypeName":"UnityEngine.Time","$version":"A"},"defaultValues":{},"position":{"x":484.0,"y":239.0},"guid":"cbe6ab9e-94ef-472d-9791-7b44c6c34a09","$version":"A","$type":"Unity.VisualScripting.GetMember","$id":"67"},{"defaultValues":{},"position":{"x":983.0,"y":193.0},"guid":"b9c0b5a0-68f9-4c00-a666-c7bd8317feee","$version":"A","$type":"Unity.VisualScripting.GenericMultiply","$id":"70"},{"specifyFallback":false,"kind":"Object","defaultValues":{"name":{"$content":"walkSpeed","$type":"System.String"},"object":null},"position":{"x":-128.0,"y":460.0},"guid":"e23fef56-9510-4b52-b75c-06f6d0201f02","$version":"A","$type":"Unity.VisualScripting.GetVariable","$id":"72"},{"member":{"name":"deltaTime","parameterTypes":null,"targetType":"UnityEngine.Time","targetTypeName":"UnityEngine.Time","$version":"A"},"defaultValues":{},"position":{"x":-121.0,"y":589.0},"guid":"7012fe22-a6d7-4680-b32a-42b4b6ff4884","$version":"A","$type":"Unity.VisualScripting.GetMember","$id":"74"},{"inputCount":2,"defaultValues":{},"position":{"x":-89.0,"y":262.0},"guid":"ffd0430a-4ded-45c2-a5c5-f8c0439ddd5e","$version":"A","$type":"Unity.VisualScripting.GenericSum","$id":"77"},{"defaultValues":{},"position":{"x":960.0,"y":432.0},"guid":"3a1dedec-47ae-4aff-9494-304e58470997","$version":"A","$type":"Unity.VisualScripting.GenericMultiply","$id":"79"},{"sourceUnit":{"$ref":"14"},"sourceKey":"exit","destinationUnit":{"$ref":"11"},"destinationKey":"enter","guid":"5dbcaefd-9a3f-4c6d-a73f-1762516d726f","$type":"Unity.VisualScripting.ControlConnection"},{"sourceUnit":{"$ref":"43"},"sourceKey":"exit","destinationUnit":{"$ref":"14"},"destinationKey":"enter","guid":"71b073e8-85fb-4b3c-ba53-f016a9d769d7","$type":"Unity.VisualScripting.ControlConnection"},{"sourceUnit":{"$ref":"9"},"sourceKey":"trigger","destinationUnit":{"$ref":"25"},"destinationKey":"assign","guid":"d9026ed6-0f42-40e2-8f5f-0c1e881916d7","$type":"Unity.VisualScripting.ControlConnection"},{"sourceUnit":{"$ref":"25"},"sourceKey":"assigned","destinationUnit":{"$ref":"28"},"destinationKey":"assign","guid":"add4837e-9aaf-405b-a492-ebcd082e9614","$type":"Unity.VisualScripting.ControlConnection"},{"sourceUnit":{"$ref":"31"},"sourceKey":"trigger","destinationUnit":{"$ref":"43"},"destinationKey":"enter","guid":"f9b5e4a2-41bd-4575-bbe3-a37ef0a90174","$type":"Unity.VisualScripting.ControlConnection"},{"sourceUnit":{"$ref":"67"},"sourceKey":"value","destinationUnit":{"$ref":"62"},"destinationKey":"a","guid":"641fc6fb-b13e-41ff-92a2-4a1d4c518edc","$type":"Unity.VisualScripting.ValueConnection"},{"sourceUnit":{"$ref":"38"},"sourceKey":"value","destinationUnit":{"$ref":"41"},"destinationKey":"b","guid":"d77b1432-b237-4422-85b4-8bbe6928fd9a","$type":"Unity.VisualScripting.ValueConnection"},{"sourceUnit":{"$ref":"36"},"sourceKey":"product","destinationUnit":{"$ref":"43"},"destinationKey":"%translation","guid":"f910c016-7643-4abf-94d8-a78fe5d8f322","$type":"Unity.VisualScripting.ValueConnection"},{"sourceUnit":{"$ref":"22"},"sourceKey":"result","destinationUnit":{"$ref":"41"},"destinationKey":"a","guid":"ed29f1fe-923c-434c-999d-cac74be1ce3f","$type":"Unity.VisualScripting.ValueConnection"},{"sourceUnit":{"$ref":"70"},"sourceKey":"product","destinationUnit":{"$ref":"14"},"destinationKey":"%yAngle","guid":"78c8dea8-0337-4b82-ac13-7a4e4ba8c90d","$type":"Unity.VisualScripting.ValueConnection"},{"sourceUnit":{"$ref":"74"},"sourceKey":"value","destinationUnit":{"$ref":"50"},"destinationKey":"b","guid":"b02fa85e-dc1d-4b01-9461-785e846af511","$type":"Unity.VisualScripting.ValueConnection"},{"sourceUnit":{"$ref":"58"},"sourceKey":"value","destinationUnit":{"$ref":"62"},"destinationKey":"b","guid":"a4932ea0-0704-4362-b236-8478b3221e10","$type":"Unity.VisualScripting.ValueConnection"},{"sourceUnit":{"$ref":"79"},"sourceKey":"product","destinationUnit":{"$ref":"60"},"destinationKey":"a","guid":"48b08f86-1333-464e-835c-2955a02afd1a","$type":"Unity.VisualScripting.ValueConnection"},{"sourceUnit":{"$ref":"41"},"sourceKey":"product","destinationUnit":{"$ref":"77"},"destinationKey":"0","guid":"09b3d492-10b7-43bd-88fb-798c650bc43b","$type":"Unity.VisualScripting.ValueConnection"},{"sourceUnit":{"$ref":"33"},"sourceKey":"value","destinationUnit":{"$ref":"48"},"destinationKey":"b","guid":"335f5f9c-1e0e-417e-a78e-15a0d14054d2","$type":"Unity.VisualScripting.ValueConnection"},{"sourceUnit":{"$ref":"48"},"sourceKey":"product","destinationUnit":{"$ref":"77"},"destinationKey":"1","guid":"76a55acd-3091-49a0-b5ab-5faa3e11b0ca","$type":"Unity.VisualScripting.ValueConnection"},{"sourceUnit":{"$ref":"52"},"sourceKey":"value","destinationUnit":{"$ref":"79"},"destinationKey":"a","guid":"22c8108a-9931-463f-a9c8-2b400f0e96cd","$type":"Unity.VisualScripting.ValueConnection"},{"sourceUnit":{"$ref":"77"},"sourceKey":"sum","destinationUnit":{"$ref":"36"},"destinationKey":"a","guid":"f8f308da-e539-4faa-b017-325a5bc04090","$type":"Unity.VisualScripting.ValueConnection"},{"sourceUnit":{"$ref":"62"},"sourceKey":"product","destinationUnit":{"$ref":"70"},"destinationKey":"b","guid":"1a70b965-2106-4999-9025-f483f2e3fbed","$type":"Unity.VisualScripting.ValueConnection"},{"sourceUnit":{"$ref":"17"},"sourceKey":"result","destinationUnit":{"$ref":"48"},"destinationKey":"a","guid":"8d9de38f-bdae-46e9-aeef-8e4ff87a1755","$type":"Unity.VisualScripting.ValueConnection"},{"sourceUnit":{"$ref":"20"},"sourceKey":"value","destinationUnit":{"$ref":"79"},"destinationKey":"b","guid":"c8c5ed6a-281c-4b43-9b5e-916edd649735","$type":"Unity.VisualScripting.ValueConnection"},{"sourceUnit":{"$ref":"50"},"sourceKey":"product","destinationUnit":{"$ref":"36"},"destinationKey":"b","guid":"89ad5f81-15bc-4459-8112-af7cd159e118","$type":"Unity.VisualScripting.ValueConnection"},{"sourceUnit":{"$ref":"64"},"sourceKey":"result","destinationUnit":{"$ref":"60"},"destinationKey":"b","guid":"15575550-876c-4b1b-9a92-02b05c6ef850","$type":"Unity.VisualScripting.ValueConnection"},{"sourceUnit":{"$ref":"72"},"sourceKey":"value","destinationUnit":{"$ref":"50"},"destinationKey":"a","guid":"c8e1be25-8811-419c-8ae3-637ae57cf2b6","$type":"Unity.VisualScripting.ValueConnection"},{"sourceUnit":{"$ref":"60"},"sourceKey":"product","destinationUnit":{"$ref":"11"},"destinationKey":"%xAngle","guid":"5338e431-7a12-4f85-8042-812dc04cfb89","$type":"Unity.VisualScripting.ValueConnection"},{"sourceUnit":{"$ref":"55"},"sourceKey":"result","destinationUnit":{"$ref":"70"},"destinationKey":"a","guid":"aa33bfb0-4b37-4f29-87a9-96415ff36de4","$type":"Unity.VisualScripting.ValueConnection"},{"sourceUnit":{"$ref":"46"},"sourceKey":"value","destinationUnit":{"$ref":"11"},"destinationKey":"target","guid":"b7de37c2-4cbf-4291-9d43-e25e511cc38a","$type":"Unity.VisualScripting.ValueConnection"}],"$version":"A"}}'
    _objectReferences: []
